{
	"Project Name": "default",
	"log_handler": {
		"host": "172.16.3.1",
		"port": 5000,
		"formatter": {
			"filename": true,
			"funcName": true,
			"levelname": true,
			"levelno": true,
			"lineno": true,
			"module": true,
			"pathname": true,
			"process": true,
			"processName": true,
			"thread": true,
			"threadName": true,
			"msg": true
		},
		"log_to_file": true,
		"log_to_elk": true,
		"find_config_recursive": false,
		"cache_in_file": true,
		"logs_folder_path": "~/.xpr/logs"
	}
}
